% Generated by IEEEtran.bst, version: 1.14 (2015/08/26)
\begin{thebibliography}{1}
\providecommand{\url}[1]{#1}
\csname url@samestyle\endcsname
\providecommand{\newblock}{\relax}
\providecommand{\bibinfo}[2]{#2}
\providecommand{\BIBentrySTDinterwordspacing}{\spaceskip=0pt\relax}
\providecommand{\BIBentryALTinterwordstretchfactor}{4}
\providecommand{\BIBentryALTinterwordspacing}{\spaceskip=\fontdimen2\font plus
\BIBentryALTinterwordstretchfactor\fontdimen3\font minus
  \fontdimen4\font\relax}
\providecommand{\BIBforeignlanguage}[2]{{%
\expandafter\ifx\csname l@#1\endcsname\relax
\typeout{** WARNING: IEEEtran.bst: No hyphenation pattern has been}%
\typeout{** loaded for the language `#1'. Using the pattern for}%
\typeout{** the default language instead.}%
\else
\language=\csname l@#1\endcsname
\fi
#2}}
\providecommand{\BIBdecl}{\relax}
\BIBdecl

\bibitem{deepdoc}
M.~Z. {Afzal}, S.~{Capobianco}, M.~I. {Malik}, S.~{Marinai}, T.~M. {Breuel},
  A.~{Dengel}, and M.~{Liwicki}, ``Deepdocclassifier: Document classification
  with deep convolutional neural network,'' in \emph{2015 13th International
  Conference on Document Analysis and Recognition (ICDAR)}, 2015, pp.
  1111--1115.

\bibitem{resnext}
\BIBentryALTinterwordspacing
S.~Xie, R.~B. Girshick, P.~Doll{\'{a}}r, Z.~Tu, and K.~He, ``Aggregated
  residual transformations for deep neural networks,'' \emph{CoRR}, vol.
  abs/1611.05431, 2016. [Online]. Available:
  \url{http://arxiv.org/abs/1611.05431}
\BIBentrySTDinterwordspacing

\end{thebibliography}
