\relax 
\providecommand\hyper@newdestlabel[2]{}
\catcode `"\active 
\providecommand\HyperFirstAtBeginDocument{\AtBeginDocument}
\HyperFirstAtBeginDocument{\ifx\hyper@anchor\@undefined
\global\let\oldcontentsline\contentsline
\gdef\contentsline#1#2#3#4{\oldcontentsline{#1}{#2}{#3}}
\global\let\oldnewlabel\newlabel
\gdef\newlabel#1#2{\newlabelxx{#1}#2}
\gdef\newlabelxx#1#2#3#4#5#6{\oldnewlabel{#1}{{#2}{#3}}}
\AtEndDocument{\ifx\hyper@anchor\@undefined
\let\contentsline\oldcontentsline
\let\newlabel\oldnewlabel
\fi}
\fi}
\global\let\hyper@last\relax 
\gdef\HyperFirstAtBeginDocument#1{#1}
\providecommand\HyField@AuxAddToFields[1]{}
\providecommand\HyField@AuxAddToCoFields[2]{}
\babel@aux{german}{}
\citation{deepdoc}
\@writefile{toc}{\contentsline {section}{\numberline {1}Einleitung}{1}{section.1}}
\@writefile{toc}{\contentsline {section}{\numberline {2}Methodik}{2}{section.2}}
\newlabel{methodik}{{2}{2}{Methodik}{section.2}{}}
\@writefile{toc}{\contentsline {subsection}{\numberline {2.1}Verwendete Hilfsmittel}{3}{subsection.2.1}}
\@writefile{lof}{\contentsline {figure}{\numberline {1}{\ignorespaces }}{4}{figure.1}}
\newlabel{confusionmatrix}{{1}{4}{}{figure.1}{}}
\@writefile{toc}{\contentsline {section}{\numberline {3}Ergebnisse}{4}{section.3}}
\newlabel{results}{{3}{4}{Ergebnisse}{section.3}{}}
\@writefile{lof}{\contentsline {figure}{\numberline {2}{\ignorespaces }}{5}{figure.2}}
\newlabel{samples_accuracy}{{2}{5}{}{figure.2}{}}
\citation{resnext}
\@writefile{lof}{\contentsline {figure}{\numberline {3}{\ignorespaces }}{6}{figure.3}}
\newlabel{resnext_confusionmatrix}{{3}{6}{}{figure.3}{}}
\@writefile{toc}{\contentsline {section}{\numberline {4}Ausblick}{6}{section.4}}
\bibstyle{IEEEtran}
\bibdata{bericht}
\bibcite{deepdoc}{1}
\bibcite{resnext}{2}
\@writefile{toc}{\contentsline {section}{\numberline {5}Zusammenfassung}{7}{section.5}}
